<?xml version="1.0" encoding="utf-8"?>
<!-- Generator: Adobe Illustrator 16.0.0, SVG Export Plug-In . SVG Version: 6.00 Build 0)  -->
<!DOCTYPE svg PUBLIC "-//W3C//DTD SVG 1.1//EN" "http://www.w3.org/Graphics/SVG/1.1/DTD/svg11.dtd">
<svg version="1.1" id="Layer_1" xmlns="http://www.w3.org/2000/svg" xmlns:xlink="http://www.w3.org/1999/xlink" x="0px" y="0px"
	 width="451.926px" height="451.939px" viewBox="0 0 451.926 451.939" enable-background="new 0 0 451.926 451.939"
	 xml:space="preserve">
<g>
	<path fill-rule="evenodd" clip-rule="evenodd" fill="#FFFFFF" d="M225.452,451.937C100.239,451.326-0.805,349.505,0.005,224.756
		C0.813,100.189,102.193-0.516,226.264,0.002c125.054,0.521,226.211,101.74,225.66,225.797
		C451.366,351.411,350.084,452.545,225.452,451.937z M417.749,225.94c-0.01-105.45-85.879-191.463-191.364-191.684
		c-105.931-0.222-192.01,85.725-192.16,191.861c-0.149,105.234,85.897,191.196,191.595,191.404
		C331.444,417.73,417.758,331.573,417.749,225.94z"/>
	<path fill-rule="evenodd" clip-rule="evenodd" fill="#FFFFFF" d="M230.991,262.814c18.856,19.077,37.669,38.11,56.002,56.658
		c15.341-15.338,30.227-30.222,45.891-45.883c-18.562-18.447-37.531-37.299-57.176-56.821
		c18.883-18.851,37.823-37.759,56.387-56.292c-14.749-14.824-29.524-29.673-44.982-45.209
		c-18.827,18.847-37.812,37.852-57.655,57.714c-18.982-19.124-37.816-38.1-55.956-56.375
		c-14.711,14.729-29.501,29.535-44.936,44.989c18.575,18.365,37.599,37.174,57.217,56.57c-19.317,19.23-38.276,38.104-56.433,56.182
		c14.939,15.008,29.794,29.93,44.96,45.164C192.745,301.071,211.583,282.228,230.991,262.814z"/>
	<path fill-rule="evenodd" clip-rule="evenodd" fill="#FFFFFF" d="M230.991,262.814c-19.408,19.413-38.246,38.257-56.682,56.697
		c-15.166-15.234-30.021-30.156-44.96-45.164c18.156-18.077,37.115-36.951,56.433-56.182c-19.618-19.396-38.642-38.205-57.217-56.57
		c15.435-15.454,30.225-30.261,44.936-44.989c18.14,18.275,36.974,37.251,55.956,56.375c19.843-19.862,38.828-38.867,57.655-57.714
		c15.458,15.536,30.233,30.385,44.982,45.209c-18.563,18.533-37.504,37.441-56.387,56.292
		c19.645,19.522,38.613,38.374,57.176,56.821c-15.664,15.661-30.55,30.545-45.891,45.883
		C268.66,300.925,249.848,281.892,230.991,262.814z"/>
</g>
</svg>
